<?xml version="1.0" encoding="utf-8"?>
<!-- Generator: Adobe Illustrator 19.1.1, SVG Export Plug-In . SVG Version: 6.00 Build 0)  -->
<svg version="1.1" id="Layer_1" xmlns="http://www.w3.org/2000/svg" xmlns:xlink="http://www.w3.org/1999/xlink" x="0px" y="0px"
	 viewBox="0 0 311 67.6" style="enable-background:new 0 0 311 67.6;" xml:space="preserve">
<style type="text/css">
	.st0{fill:#0066B3;}
</style>
<g>
	<g>
		<path class="st0" d="M0,37.8V0.4h4.7v33.3h13.4v4.1H0z"/>
		<path class="st0" d="M46.4,37.8h-4.7v-4.2c-1.9,3.2-4.7,4.8-8.5,4.8c-3.8,0-6.9-1.3-9.6-3.9c-2.6-2.6-3.9-5.7-3.9-9.2
			c0-3.6,1.3-6.7,3.9-9.3c2.6-2.6,5.8-3.9,9.6-3.9c3.8,0,6.6,1.6,8.5,4.7v-2.8h4.7V37.8z M41.7,27.2v-3.8c-0.3-1.7-1.1-3.2-2.4-4.4
			c-1.7-1.8-3.8-2.7-6.1-2.7c-2.3,0-4.4,0.9-6.1,2.6c-1.7,1.7-2.6,3.9-2.6,6.4c0,2.5,0.9,4.7,2.6,6.4c1.7,1.7,3.7,2.6,6.1,2.6
			c2.3,0,4.4-0.9,6.1-2.6C40.6,30.4,41.4,28.9,41.7,27.2z"/>
		<path class="st0" d="M77.3,37.8h-4.7v-4.2c-1.9,3.2-4.7,4.8-8.5,4.8c-3.8,0-6.9-1.3-9.6-3.9c-2.6-2.6-3.9-5.7-3.9-9.2
			c0-3.6,1.3-6.7,3.9-9.3c2.6-2.6,5.8-3.9,9.6-3.9c3.8,0,6.6,1.6,8.5,4.7V0.4h4.7V37.8z M72.6,27.2v-3.8c-0.3-1.7-1.1-3.2-2.4-4.4
			c-1.7-1.8-3.8-2.7-6.1-2.7c-2.3,0-4.4,0.9-6.1,2.6c-1.7,1.7-2.6,3.9-2.6,6.4c0,2.5,0.9,4.7,2.6,6.4c1.7,1.7,3.7,2.6,6.1,2.6
			c2.3,0,4.4-0.9,6.1-2.6C71.5,30.4,72.3,28.9,72.6,27.2z"/>
		<path class="st0" d="M108.2,37.8h-4.7v-4.2c-1.9,3.2-4.7,4.8-8.5,4.8c-3.8,0-6.9-1.3-9.6-3.9c-2.6-2.6-3.9-5.7-3.9-9.2
			c0-3.6,1.3-6.7,3.9-9.3s5.8-3.9,9.6-3.9c3.8,0,6.6,1.6,8.5,4.7V0.4h4.7V37.8z M103.5,27.2v-3.8c-0.3-1.7-1.1-3.2-2.4-4.4
			c-1.7-1.8-3.8-2.7-6.1-2.7c-2.3,0-4.4,0.9-6.1,2.6c-1.7,1.7-2.6,3.9-2.6,6.4c0,2.5,0.9,4.7,2.6,6.4c1.7,1.7,3.7,2.6,6.1,2.6
			c2.3,0,4.4-0.9,6.1-2.6C102.3,30.4,103.1,28.9,103.5,27.2z"/>
		<path class="st0" d="M116.6,25.2L116.6,25.2c0,2.6,0.9,4.7,2.6,6.4c1.7,1.7,3.7,2.6,6.1,2.6c2.3,0,4.4-0.9,6.1-2.6
			c0.2-0.2,0.7-0.8,1.4-1.6l4.4,1.6c-0.7,1.1-1.4,2.1-2.3,2.9c-2.6,2.7-5.8,4-9.6,4c-3.8,0-6.9-1.3-9.6-3.9
			c-2.6-2.6-3.9-5.7-3.9-9.2c0-3.6,1.3-6.7,3.9-9.3c2.6-2.6,5.8-3.9,9.6-3.9c3.8,0,7,1.3,9.6,4c2.3,2.3,3.4,5.3,3.4,9.1H116.6z
			 M117.5,21.1H133c-1.1-3.2-3.7-4.8-7.7-4.8C121.2,16.3,118.6,17.9,117.5,21.1z"/>
		<path class="st0" d="M152,18.5h-10.4v-4.1h18l-11.2,19.4h11.3v4.1h-18.9L152,18.5z"/>
		<path class="st0" d="M209.2,32.7c-3.8,3.7-8.3,5.5-13.4,5.5c-5.4,0-10-1.9-13.8-5.6c-3.8-3.8-5.6-8.3-5.6-13.5
			c0-5.2,1.9-9.7,5.6-13.5S190.5,0,195.9,0c5.1,0,9.7,1.9,13.9,5.8l-3.3,2.9c-3.4-3-7-4.5-10.6-4.5c-4,0-7.4,1.5-10.3,4.4
			c-2.9,2.9-4.4,6.4-4.4,10.6c0,4.2,1.5,7.8,4.4,10.7c2.9,2.9,6.3,4.3,10.3,4.3c3.4,0,6.3-1,8.7-2.9V19.9h4.7V32.7z"/>
		<path class="st0" d="M225.2,17.6c-2.1,0.3-3.8,1.2-5,2.6c-1.2,1.4-1.8,3.1-1.8,5.2v12.5h-4.7V14.1h4.7v3.4
			c0.7-1.9,2.2-3.1,4.5-3.9L225.2,17.6z"/>
		<path class="st0" d="M241.9,12.1c3.8,0,7,1.3,9.6,3.9c2.6,2.6,3.9,5.7,3.9,9.3c0,3.6-1.3,6.6-3.9,9.2c-2.6,2.6-5.8,3.9-9.6,3.9
			c-3.8,0-6.9-1.3-9.6-3.9c-2.6-2.6-3.9-5.7-3.9-9.2c0-3.6,1.3-6.7,3.9-9.3C234.9,13.4,238.1,12.1,241.9,12.1z M235.8,18.9
			c-1.7,1.7-2.6,3.9-2.6,6.4c0,2.5,0.9,4.7,2.6,6.4c1.7,1.7,3.7,2.6,6.1,2.6c2.3,0,4.3-0.9,6.1-2.6c1.7-1.7,2.6-3.8,2.6-6.4
			c0-2.5-0.9-4.7-2.6-6.4c-1.7-1.7-3.7-2.6-6.1-2.6C239.5,16.3,237.5,17.2,235.8,18.9z"/>
		<path class="st0" d="M269.7,38.1c-3.2,0-5.6-0.9-7.5-2.8c-1.8-1.8-2.8-4.1-2.8-6.8V14.1h4.7v14.4c0,1.6,0.6,2.9,1.7,4.1
			c1.1,1.1,2.3,1.6,3.9,1.6c1.4,0,2.6-0.5,3.7-1.6c1.1-1.1,1.6-2.4,1.6-4V14.1h4.7v14.6c-0.1,2.7-1,4.9-2.9,6.8
			C275.1,37.2,272.7,38.1,269.7,38.1z"/>
		<path class="st0" d="M284.4,14.1h4.7v2.7c1.9-3.1,4.7-4.7,8.4-4.7c3.8,0,7,1.3,9.6,3.9c2.6,2.6,3.9,5.7,3.9,9.3
			c0,3.6-1.3,6.6-3.9,9.2c-2.6,2.6-5.8,3.9-9.6,3.9c-3.8,0-6.6-1.6-8.4-4.7v12.3h-4.7V14.1z M289.1,23.3v4c0.3,1.7,1.1,3.2,2.4,4.4
			c1.7,1.7,3.7,2.5,6,2.5c2.3,0,4.3-0.9,6.1-2.6c1.7-1.7,2.6-3.9,2.6-6.4c0-2.5-0.9-4.7-2.6-6.4c-1.7-1.7-3.7-2.6-6.1-2.6
			c-2.3,0-4.4,0.9-6.1,2.7C290.2,20.2,289.4,21.6,289.1,23.3z"/>
	</g>
	<g>
		<path d="M118.2,56.1c-0.5,0.7-1.3,1.1-2.3,1.1c-1.8,0-2.9-1.2-2.9-3.1v-2.6c0-1.9,1.1-3.1,2.9-3.1c1,0,1.8,0.4,2.3,1.1l0.1-0.6
			c0.1-0.3,0.3-0.5,0.5-0.5c0.3,0,0.5,0.2,0.5,0.6v7.5c0,0.4-0.2,0.6-0.5,0.6c-0.2,0-0.5-0.1-0.5-0.5L118.2,56.1z M118.1,54v-2.4
			c0-1.2-0.7-2.1-2-2.1c-1.2,0-1.9,0.9-1.9,2v2.7c0,1.1,0.6,2,1.9,2C117.4,56.1,118.1,55.2,118.1,54z"/>
		<path d="M128,56.5c0,0.4-0.2,0.6-0.5,0.6c-0.2,0-0.5-0.1-0.5-0.5l-0.1-0.6c-0.5,0.7-1.3,1.1-2.3,1.1c-1.8,0-2.9-1.2-2.9-3.1v-2.6
			c0-1.9,1.1-3.1,2.9-3.1c0.9,0,1.7,0.4,2.2,1v-3.6c0-0.4,0.2-0.6,0.6-0.6c0.4,0,0.6,0.3,0.6,0.6V56.5z M126.8,54v-2.4
			c0-1.2-0.7-2.1-2-2.1c-1.2,0-1.9,0.9-1.9,2v2.7c0,1.1,0.6,2,1.9,2C126,56.1,126.8,55.2,126.8,54z"/>
		<path d="M131.1,48.9l2.2,6.5l2.2-6.4c0.1-0.3,0.3-0.5,0.6-0.5c0.5,0,0.7,0.5,0.6,0.9l-2.6,7.2c-0.1,0.4-0.4,0.6-0.8,0.6
			c-0.4,0-0.7-0.2-0.8-0.6l-2.6-7.2c-0.2-0.4,0.1-0.9,0.6-0.9C130.8,48.4,131,48.6,131.1,48.9z"/>
		<path d="M144.5,54.8c-0.2,1.5-1.4,2.4-3.1,2.4c-1.9,0-3.2-1.2-3.2-3.2v-2.4c0-2,1.3-3.3,3.2-3.3c1.9,0,3.1,1.3,3.1,3.3v0.7
			c0,0.4-0.2,0.6-0.6,0.6h-4.5v1.2c0,1.1,0.7,2,2,2c1.3,0,1.9-0.7,2-1.6c0.1-0.3,0.2-0.5,0.5-0.5C144.3,54.1,144.6,54.4,144.5,54.8z
			 M139.4,51.9h3.9v-0.4c0-1.2-0.7-2.1-1.9-2.1c-1.3,0-2,0.9-2,2.1V51.9z"/>
		<path d="M147.9,49.6c0.5-0.8,1.2-1.2,2.2-1.2c0.3,0,0.6,0.2,0.6,0.6c0,0.3-0.2,0.6-0.5,0.6c-1.3,0-2.1,0.9-2.1,2.1v4.8
			c0,0.4-0.2,0.6-0.6,0.6c-0.4,0-0.6-0.3-0.6-0.6V49c0-0.3,0.2-0.6,0.5-0.6c0.2,0,0.5,0.1,0.5,0.5L147.9,49.6z"/>
		<path d="M151.8,48.6h1.3v-1.8c0-0.4,0.3-0.6,0.6-0.6c0.4,0,0.6,0.3,0.6,0.6v1.8h1.3c0.3,0,0.5,0.2,0.5,0.5c0,0.3-0.2,0.6-0.5,0.6
			h-1.3v6.8c0,0.4-0.3,0.6-0.6,0.6c-0.4,0-0.6-0.3-0.6-0.6v-6.8h-1.3c-0.3,0-0.5-0.2-0.5-0.5C151.2,48.8,151.4,48.6,151.8,48.6z"/>
		<path d="M158.3,45.3c0.5,0,0.8,0.4,0.8,0.8c0,0.5-0.4,0.8-0.8,0.8c-0.5,0-0.8-0.4-0.8-0.8C157.4,45.7,157.8,45.3,158.3,45.3z
			 M158.9,49.1v7.4c0,0.4-0.3,0.6-0.6,0.6c-0.4,0-0.6-0.3-0.6-0.6v-7.4c0-0.4,0.3-0.6,0.6-0.6C158.6,48.4,158.9,48.7,158.9,49.1z"/>
		<path d="M163.1,53c-1-0.3-2-0.9-2-2.2c0-1.3,1.2-2.4,2.9-2.4c1.6,0,2.7,0.8,3,2c0.1,0.4-0.1,0.7-0.5,0.7c-0.3,0-0.5-0.2-0.6-0.5
			c-0.2-0.7-0.7-1.2-1.8-1.2c-0.8,0-1.7,0.4-1.7,1.3c0,0.6,0.3,0.9,1,1.1l1.4,0.5c1.3,0.4,2.3,0.9,2.3,2.4c0,1.5-1.2,2.6-3,2.6
			c-1.7,0-3-0.8-3.1-2.2c0-0.3,0.2-0.7,0.6-0.7c0.3,0,0.5,0.1,0.5,0.5c0.2,0.8,0.7,1.4,2,1.4c1.2,0,1.8-0.6,1.8-1.4
			c0-0.7-0.3-1-1.1-1.3L163.1,53z"/>
		<path d="M169.8,45.3c0.5,0,0.8,0.4,0.8,0.8c0,0.5-0.4,0.8-0.8,0.8c-0.5,0-0.8-0.4-0.8-0.8C169,45.7,169.4,45.3,169.8,45.3z
			 M170.5,49.1v7.4c0,0.4-0.3,0.6-0.6,0.6c-0.4,0-0.6-0.3-0.6-0.6v-7.4c0-0.4,0.3-0.6,0.6-0.6C170.2,48.4,170.5,48.7,170.5,49.1z"/>
		<path d="M174.1,49.5c0.5-0.7,1.3-1.2,2.3-1.2c1.9,0,2.9,1.2,2.9,3.1v5c0,0.4-0.3,0.6-0.6,0.6c-0.4,0-0.6-0.3-0.6-0.6v-5
			c0-1.1-0.6-2-1.9-2c-1.3,0-2,0.9-2,2.1v4.9c0,0.4-0.3,0.6-0.6,0.6c-0.4,0-0.6-0.3-0.6-0.6V49c0-0.3,0.2-0.6,0.5-0.6
			c0.2,0,0.5,0.1,0.5,0.5L174.1,49.5z"/>
		<path d="M186.9,48.9c0.1-0.3,0.3-0.5,0.5-0.5c0.3,0,0.5,0.2,0.5,0.6v8.5c0,1.9-1.3,3-3.2,3c-1.7,0-2.7-0.8-3-1.9
			c-0.1-0.4,0.1-0.8,0.5-0.8c0.3,0,0.5,0.2,0.6,0.5c0.2,0.6,0.7,1.2,1.9,1.2c1.2,0,1.9-0.7,1.9-1.8v-1.7c-0.5,0.6-1.3,1-2.2,1
			c-1.8,0-2.9-1.2-2.9-3.1v-2.3c0-1.9,1.1-3.1,2.9-3.1c1,0,1.8,0.4,2.3,1.1L186.9,48.9z M186.7,53.7v-2.1c0-1.2-0.7-2.1-2-2.1
			c-1.2,0-1.9,0.9-1.9,2v2.3c0,1.1,0.6,2,1.9,2C185.9,55.8,186.7,54.9,186.7,53.7z"/>
		<path d="M193.4,48.6h1.3v-1.8c0-0.4,0.3-0.6,0.6-0.6c0.4,0,0.6,0.3,0.6,0.6v1.8h1.3c0.3,0,0.5,0.2,0.5,0.5c0,0.3-0.2,0.6-0.5,0.6
			h-1.3v6.8c0,0.4-0.3,0.6-0.6,0.6c-0.4,0-0.6-0.3-0.6-0.6v-6.8h-1.3c-0.3,0-0.5-0.2-0.5-0.5C192.9,48.8,193.1,48.6,193.4,48.6z"/>
		<path d="M205.3,54.8c-0.2,1.5-1.4,2.4-3.1,2.4c-1.9,0-3.2-1.2-3.2-3.2v-2.4c0-2,1.3-3.3,3.2-3.3c1.9,0,3.1,1.3,3.1,3.3v0.7
			c0,0.4-0.2,0.6-0.6,0.6h-4.5v1.2c0,1.1,0.7,2,2,2c1.3,0,1.9-0.7,2-1.6c0.1-0.3,0.2-0.5,0.5-0.5C205.1,54.1,205.4,54.4,205.3,54.8z
			 M200.2,51.9h3.9v-0.4c0-1.2-0.7-2.1-1.9-2.1c-1.3,0-2,0.9-2,2.1V51.9z"/>
		<path d="M213.6,54.7c-0.2,1.6-1.4,2.5-3.1,2.5c-1.9,0-3.3-1.3-3.3-3.3v-2.2c0-2,1.3-3.3,3.3-3.3c1.7,0,3,1,3.1,2.4
			c0,0.4-0.2,0.7-0.6,0.7c-0.3,0-0.5-0.2-0.6-0.5c-0.2-0.9-0.8-1.5-1.9-1.5c-1.3,0-2,0.9-2,2.1V54c0,1.2,0.7,2.1,2,2.1
			c1.2,0,1.8-0.6,2-1.6c0.1-0.4,0.3-0.5,0.6-0.5C213.4,54,213.6,54.3,213.6,54.7z"/>
		<path d="M215.7,56.5V45.8c0-0.4,0.3-0.6,0.6-0.6c0.4,0,0.6,0.3,0.6,0.6v3.6c0.5-0.6,1.3-1,2.2-1c1.9,0,2.9,1.2,2.9,3.1v5
			c0,0.4-0.3,0.6-0.6,0.6c-0.4,0-0.6-0.3-0.6-0.6v-5c0-1.1-0.6-2-1.9-2c-1.3,0-2,0.9-2,2.1v4.9c0,0.4-0.3,0.6-0.6,0.6
			C216,57.1,215.7,56.9,215.7,56.5z"/>
		<path d="M225.7,49.5c0.5-0.7,1.3-1.2,2.3-1.2c1.9,0,2.9,1.2,2.9,3.1v5c0,0.4-0.3,0.6-0.6,0.6c-0.4,0-0.6-0.3-0.6-0.6v-5
			c0-1.1-0.6-2-1.9-2c-1.3,0-2,0.9-2,2.1v4.9c0,0.4-0.3,0.6-0.6,0.6c-0.4,0-0.6-0.3-0.6-0.6V49c0-0.3,0.2-0.6,0.5-0.6
			c0.2,0,0.5,0.1,0.5,0.5L225.7,49.5z"/>
		<path d="M239.6,53.9c0,2-1.3,3.3-3.3,3.3c-1.9,0-3.2-1.3-3.2-3.3v-2.2c0-2,1.3-3.3,3.2-3.3c1.9,0,3.3,1.3,3.3,3.3V53.9z M234.4,54
			c0,1.2,0.7,2.1,2,2.1c1.3,0,2-0.9,2-2.1v-2.4c0-1.2-0.7-2.1-2-2.1c-1.3,0-2,0.9-2,2.1V54z"/>
		<path d="M243.1,45.8v10.7c0,0.4-0.3,0.6-0.6,0.6c-0.4,0-0.6-0.3-0.6-0.6V45.8c0-0.4,0.3-0.6,0.6-0.6
			C242.9,45.2,243.1,45.4,243.1,45.8z"/>
		<path d="M251.9,53.9c0,2-1.3,3.3-3.3,3.3c-1.9,0-3.2-1.3-3.2-3.3v-2.2c0-2,1.3-3.3,3.2-3.3c1.9,0,3.3,1.3,3.3,3.3V53.9z M246.7,54
			c0,1.2,0.7,2.1,2,2.1c1.3,0,2-0.9,2-2.1v-2.4c0-1.2-0.7-2.1-2-2.1c-1.3,0-2,0.9-2,2.1V54z"/>
		<path d="M259.2,48.9c0.1-0.3,0.3-0.5,0.5-0.5c0.3,0,0.5,0.2,0.5,0.6v8.5c0,1.9-1.3,3-3.2,3c-1.7,0-2.7-0.8-3-1.9
			c-0.1-0.4,0.1-0.8,0.5-0.8c0.3,0,0.5,0.2,0.6,0.5c0.2,0.6,0.7,1.2,1.9,1.2c1.2,0,1.9-0.7,1.9-1.8v-1.7c-0.5,0.6-1.3,1-2.2,1
			c-1.8,0-2.9-1.2-2.9-3.1v-2.3c0-1.9,1.1-3.1,2.9-3.1c1,0,1.8,0.4,2.3,1.1L259.2,48.9z M259,53.7v-2.1c0-1.2-0.7-2.1-2-2.1
			c-1.2,0-1.9,0.9-1.9,2v2.3c0,1.1,0.6,2,1.9,2C258.2,55.8,259,54.9,259,53.7z"/>
		<path d="M263.4,45.3c0.5,0,0.8,0.4,0.8,0.8c0,0.5-0.4,0.8-0.8,0.8c-0.5,0-0.8-0.4-0.8-0.8C262.6,45.7,262.9,45.3,263.4,45.3z
			 M264,49.1v7.4c0,0.4-0.3,0.6-0.6,0.6c-0.4,0-0.6-0.3-0.6-0.6v-7.4c0-0.4,0.3-0.6,0.6-0.6C263.8,48.4,264,48.7,264,49.1z"/>
		<path d="M272.5,54.8c-0.2,1.5-1.4,2.4-3.1,2.4c-1.9,0-3.2-1.2-3.2-3.2v-2.4c0-2,1.3-3.3,3.2-3.3c1.9,0,3.1,1.3,3.1,3.3v0.7
			c0,0.4-0.2,0.6-0.6,0.6h-4.5v1.2c0,1.1,0.7,2,2,2c1.3,0,1.9-0.7,2-1.6c0.1-0.3,0.2-0.5,0.5-0.5C272.4,54.1,272.6,54.4,272.5,54.8z
			 M267.5,51.9h3.9v-0.4c0-1.2-0.7-2.1-1.9-2.1c-1.3,0-2,0.9-2,2.1V51.9z"/>
		<path d="M276.5,53c-1-0.3-2-0.9-2-2.2c0-1.3,1.2-2.4,2.9-2.4c1.6,0,2.7,0.8,3,2c0.1,0.4-0.1,0.7-0.5,0.7c-0.3,0-0.5-0.2-0.6-0.5
			c-0.2-0.7-0.7-1.2-1.8-1.2c-0.8,0-1.7,0.4-1.7,1.3c0,0.6,0.3,0.9,1,1.1l1.4,0.5c1.3,0.4,2.3,0.9,2.3,2.4c0,1.5-1.2,2.6-3,2.6
			c-1.7,0-3-0.8-3.1-2.2c0-0.3,0.2-0.7,0.6-0.7c0.3,0,0.5,0.1,0.5,0.5c0.2,0.8,0.7,1.4,2,1.4c1.2,0,1.8-0.6,1.8-1.4
			c0-0.7-0.3-1-1.1-1.3L276.5,53z"/>
	</g>
	<path class="st0" d="M96.8,50.3l-4.5-9.2l-4.2,9.2h3.1c0,0,0,0,0,0c0,5.9-2.4,10.6-6.9,13.2c-4.3,2.5-9.9,2.5-14.2,0
		c-4.4-2.5-6.8-7.2-6.8-13.2c0-0.6-0.5-1.2-1.2-1.2c-0.6,0-1.2,0.5-1.2,1.2c0,6.8,2.8,12.2,8,15.2c2.5,1.4,5.3,2.2,8.2,2.2
		c2.9,0,5.8-0.7,8.3-2.2c5.2-3,8-8.4,8-15.2H96.8z"/>
</g>
</svg>
